{
    "name": "pwa_sync",
    "version": "1.0.3",
    "description": "PWA_SYNC ",
    "main": "main.js",
    "NRelectron": {
        "productName": "PWA SYNC",
        "editable": true,
        "allowLoadSave": false,
        "showMap": false,
        "kioskMode": false,
        "flowFile": "electronflow.json",
        "start": "editor"
    },
    "scripts": {
        "pack": "electron-builder --dir",
        "dist": "electron-builder",
        "release": "electron-builder build -p always",
        "postinstall": "electron-builder install-app-deps",
        "start": "electron main.js",
        "test": "echo \" Warning: no test specified \""
    },
    "repository": {
        "type": "git",
        "url": "git+https://github.com/dceejay/electron-node-red.git"
    },
    "dependencies": {
        "electron-is-dev": "*",
        "express": "^4.17.1",
        "node-red": "1.0.3"
    },
    "keywords": [
        "electron",
        "quick start",
        "node-red"
    ],
    "author": {
        "name": "surawut aonjaiaow",
        "email": "surawut@deaware.com"
    },
    "license": "Apache-2.0",
    "bugs": {
        "url": ""
    },
    "homepage": "",
    "devDependencies": {
        "electron": "^7.1.1",
        "electron-builder": "^22.1.0"
    },
    "build": {
        "appId": "com.electron.pwa-sync",
        "productName": "PWA-Sync",
        "copyright": "Copyright © 2020 Deaware System co.LTD",
        "win": {
            "target": [
                {
                    "target": "msi",
                    "arch": [
                        "x64"
                    ]
                }
            ]
        }
    }
}
